image,label
7177,
5285,
5612,
218,
4730,
3278,
3430,
3927,
8306,
7091,
8939,
4926,
5077,
8375,
2996,
2963,
5819,
9816,
6446,
3396,
745,
3653,
2680,
642,
2355,
7703,
4186,
7146,
7735,
6971,
1539,
8414,
9380,
2956,
8495,
1673,
1826,
5476,
1209,
286,
7568,
2123,
521,
2752,
332,
3313,
2914,
3454,
3111,
2783,
5344,
5644,
297,
4207,
1759,
944,
8963,
7778,
3289,
4904,
8276,
4952,
6096,
5454,
4383,
7978,
7930,
3040,
4248,
7426,
4532,
5822,
9710,
1693,
5305,
685,
4087,
6009,
3509,
3262,
3815,
1550,
5474,
9814,
8870,
372,
199,
5961,
9250,
1167,
6051,
1894,
2348,
5383,
9624,
681,
8287,
1064,
863,
3407,
5141,
9408,
1105,
7822,
2403,
4306,
7143,
5416,
5962,
5670,
88,
17,
5430,
6257,
8209,
1815,
8125,
5218,
9552,
5866,
4218,
1622,
359,
8314,
641,
2616,
9313,
2638,
3044,
6532,
2578,
4861,
8513,
1893,
9512,
4540,
2968,
1159,
5370,
38,
7563,
7945,
1259,
4679,
9741,
2178,
1966,
5060,
3110,
4628,
6431,
6497,
3733,
7546,
583,
4313,
5520,
460,
5208,
5610,
9869,
9610,
9475,
296,
6477,
6044,
4946,
9041,
7559,
4069,
8299,
141,
7576,
701,
9679,
6506,
30,
5532,
1254,
2386,
878,
706,
2512,
9616,
1024,
5173,
6062,
1547,
747,
551,
7324,
9319,
5643,
8918,
4577,
6706,
4008,
5761,
991,
5828,
8605,
5063,
3457,
2320,
6985,
556,
7004,
9303,
6617,
7676,
2181,
69,
1483,
2640,
3998,
2681,
8928,
2887,
7011,
2709,
3689,
7142,
5395,
3664,
1434,
281,
9842,
3168,
375,
4957,
1636,
1403,
6420,
383,
1225,
4646,
4653,
9027,
8124,
2375,
7062,
5217,
8779,
9486,
5524,
7979,
5485,
9363,
1046,
5577,
8021,
8704,
3718,
7935,
4013,
242,
3001,
5210,
1279,
6298,
5963,
7686,
7742,
2389,
3387,
7505,
2711,
3460,
6988,
7826,
9743,
5793,
9034,
5744,
8776,
3094,
4268,
5427,
3517,
844,
6881,
5928,
3841,
2122,
2395,
7357,
3360,
4804,
2111,
6004,
2157,
7326,
1266,
6867,
5450,
6760,
2790,
4548,
1353,
8662,
3315,
8131,
4138,
1435,
754,
9705,
729,
7877,
555,
3826,
1328,
1943,
577,
3851,
5898,
3408,
1160,
1534,
3478,
3187,
8303,
8431,
4053,
147,
3859,
7239,
4028,
295,
7933,
6570,
6695,
4402,
8808,
3800,
9765,
5974,
5246,
8927,
8901,
1615,
9833,
1128,
3848,
4308,
2652,
1929,
988,
2251,
1777,
5525,
8848,
6126,
5172,
1250,
3789,
1147,
5314,
4935,
3866,
8430,
9305,
6839,
8305,
8357,
7331,
8920,
8592,
7627,
7875,
6689,
4983,
122,
8180,
8402,
5299,
3856,
6412,
4993,
272,
5925,
8358,
8899,
7755,
5054,
6493,
485,
7592,
3048,
4459,
638,
2434,
169,
5142,
9423,
464,
9284,
7180,
6633,
8930,
2846,
4156,
5546,
8101,
2107,
723,
4290,
5357,
4712,
8656,
8879,
9777,
6365,
2970,
7149,
7280,
6986,
4671,
3421,
4536,
584,
8405,
9310,
9593,
8100,
5097,
3210,
4718,
6951,
7911,
2548,
9069,
516,
252,
9659,
8390,
7254,
7197,
3945,
7761,
5837,
2542,
113,
1979,
8367,
8366,
6418,
7999,
2823,
8536,
7485,
8128,
8459,
8723,
1791,
3196,
4506,
5003,
9754,
9263,
507,
3715,
5008,
1878,
5739,
1182,
2202,
6744,
6920,
9836,
4124,
7139,
6871,
2575,
7611,
2951,
4725,
7025,
2802,
8597,
5147,
3392,
6964,
5607,
2625,
9885,
5318,
2713,
606,
3466,
889,
3203,
964,
9429,
1176,
2724,
5694,
1538,
8087,
9623,
5526,
6609,
4865,
5108,
6430,
7276,
6039,
4949,
6732,
7238,
5155,
5356,
306,
3283,
5283,
8192,
5658,
1452,
410,
9460,
116,
5303,
758,
7186,
9608,
673,
2087,
8890,
8024,
3173,
9163,
8757,
4504,
5531,
8845,
360,
2073,
481,
6897,
15,
6409,
1872,
1674,
5804,
87,
2932,
3097,
6831,
1196,
162,
9866,
6018,
2803,
5701,
1831,
6115,
2533,
2417,
3229,
9073,
2220,
3184,
3740,
6996,
6724,
2537,
8504,
1118,
66,
3725,
3885,
6599,
7866,
1280,
6481,
7683,
4088,
248,
3520,
429,
1144,
687,
8906,
8195,
8502,
28,
5023,
4312,
4786,
160,
4956,
4425,
7691,
6303,
4707,
7915,
3623,
6241,
5789,
9393,
4526,
7879,
5759,
7279,
2886,
6628,
3973,
4189,
6180,
54,
4826,
8839,
6676,
869,
4184,
635,
2249,
7051,
5268,
1528,
6775,
8023,
4522,
3333,
4859,
2482,
8433,
1505,
1809,
1358,
4776,
2444,
434,
8254,
1351,
9166,
4099,
2339,
8973,
3781,
4309,
8554,
3441,
7530,
274,
2162,
674,
8614,
7390,
1598,
8362,
1865,
6811,
1840,
714,
8179,
4003,
1803,
5606,
8825,
2644,
9366,
157,
4591,
4773,
3284,
7540,
860,
43,
3736,
4759,
3260,
8771,
7319,
143,
5890,
788,
3542,
3240,
3377,
333,
2481,
9337,
2892,
4286,
4396,
2973,
7050,
3167,
279,
688,
8384,
2313,
9752,
7882,
5994,
7980,
993,
7159,
4144,
9130,
6150,
9767,
881,
6456,
3819,
7471,
8743,
7141,
7388,
3708,
4086,
1861,
7617,
3204,
1709,
8277,
3864,
6571,
6093,
9645,
7916,
1735,
9704,
232,
6660,
4034,
8937,
2121,
1109,
6287,
4057,
1374,
696,
3085,
5358,
6276,
6915,
5558,
8635,
1998,
8613,
1449,
2700,
3219,
1466,
6057,
5410,
6235,
5013,
8770,
8993,
3023,
5530,
68,
8612,
150,
6886,
3395,
3890,
6861,
1616,
6450,
9453,
931,
4154,
784,
2430,
4481,
1681,
4431,
8057,
1337,
1642,
3339,
2957,
7813,
3151,
7077,
1300,
6675,
6210,
9273,
4352,
5764,
3379,
4830,
5035,
5907,
8471,
1286,
5986,
7356,
7824,
6848,
4914,
3093,
2062,
3824,
849,
4834,
879,
1429,
9379,
718,
5538,
3084,
2414,
3055,
8748,
5059,
5811,
7849,
3459,
505,
910,
6297,
9324,
2285,
2246,
1627,
3277,
217,
346,
2614,
2212,
4558,
7152,
267,
397,
4386,
8520,
7316,
3133,
7428,
4705,
201,
4366,
7420,
9542,
6425,
1081,
3414,
4684,
3640,
7299,
8227,
9495,
4320,
6613,
1013,
7987,
8514,
5821,
5635,
9529,
4557,
7977,
94,
7064,
5862,
2038,
7030,
4724,
1456,
4357,
8159,
7338,
7845,
6843,
2821,
9634,
3833,
4145,
836,
9259,
940,
1303,
3675,
3281,
7545,
1015,
5964,
4096,
2041,
6470,
1799,
5331,
4110,
5120,
7413,
1006,
1005,
2879,
3298,
2645,
4026,
185,
5424,
2215,
8259,
2349,
9131,
445,
9257,
5242,
4587,
7164,
5326,
3745,
41,
4075,
838,
4183,
5317,
9720,
6935,
4216,
7400,
6950,
4135,
5281,
5197,
3124,
1094,
1380,
7773,
311,
9528,
8815,
3541,
5630,
3942,
2685,
4455,
4556,
1662,
7301,
62,
6445,
2831,
6336,
4582,
1561,
1514,
3619,
5399,
1221,
4444,
3275,
2694,
4063,
2552,
6212,
1203,
8372,
6433,
7784,
3449,
4499,
498,
9715,
4692,
1904,
4634,
7642,
2238,
5158,
4473,
2130,
2588,
2837,
7603,
8482,
9336,
9674,
7797,
3568,
7557,
8076,
4648,
592,
2581,
3209,
2006,
4076,
7031,
4584,
7473,
2627,
8683,
5677,
6590,
7939,
2149,
6535,
2147,
5168,
1786,
4337,
9301,
8960,
2975,
6712,
7250,
7286,
1448,
8680,
420,
5656,
5959,
7322,
7288,
5631,
125,
7790,
8654,
1587,
1582,
7666,
3508,
4414,
5621,
2044,
4385,
5697,
4930,
8156,
8378,
5134,
8558,
5567,
1744,
9,
6030,
1237,
667,
5542,
6874,
5017,
6927,
6538,
7907,
8562,
8441,
2675,
3954,
2442,
6031,
7096,
3549,
9565,
8419,
523,
2068,
4267,
5243,
4623,
895,
7791,
1962,
6699,
1839,
5945,
6263,
2573,
815,
9138,
2498,
6304,
2,
1129,
1928,
3849,
6910,
4805,
357,
2383,
9465,
1670,
7220,
4265,
8818,
189,
4361,
4263,
3374,
5374,
1874,
4947,
9526,
7019,
1027,
292,
5808,
7394,
9815,
3311,
5266,
1472,
374,
2186,
4838,
603,
5929,
3787,
9440,
8685,
4074,
9744,
2712,
290,
8233,
7515,
2342,
2336,
4418,
4116,
8854,
8511,
6737,
8029,
9184,
8907,
409,
1462,
6967,
9793,
2084,
7042,
5413,
3337,
8251,
6337,
7964,
9449,
4018,
12,
2784,
2905,
3952,
9717,
1074,
8806,
6211,
4801,
9410,
6464,
3578,
3264,
3729,
1137,
4080,
8560,
3136,
1343,
780,
9756,
1940,
797,
7457,
2774,
2183,
1964,
807,
8039,
5297,
7103,
5771,
958,
2817,
7162,
948,
1180,
9471,
8264,
2004,
1705,
300,
7662,
3840,
6555,
4809,
8829,
7707,
8600,
4452,
9863,
3435,
7376,
4039,
9521,
3914,
5683,
9402,
3831,
6060,
9664,
3373,
3656,
7864,
6511,
1206,
2845,
918,
4043,
5936,
7659,
5072,
2462,
8527,
6421,
4475,
8112,
6166,
707,
349,
5672,
605,
8089,
1672,
755,
3176,
7327,
5841,
108,
6256,
8652,
7263,
2687,
1843,
2535,
3061,
3223,
8175,
6554,
9270,
9883,
4870,
885,
2543,
2947,
3096,
8485,
3253,
981,
637,
8442,
6274,
4953,
4862,
9698,
9595,
7017,
7760,
6026,
6444,
27,
2525,
7709,
4010,
4811,
79,
1068,
7803,
446,
4479,
2193,
299,
3986,
3829,
4669,
7885,
9500,
570,
2192,
8739,
5254,
8978,
2830,
3497,
558,
3597,
6267,
4980,
5506,
909,
5114,
8237,
7983,
5202,
1736,
8480,
4242,
5510,
2734,
4937,
3654,
7175,
2490,
7429,
9588,
4641,
8286,
3784,
4520,
3152,
8799,
6172,
5840,
2457,
4629,
2895,
7956,
1292,
6672,
9622,
8342,
7015,
325,
5799,
3237,
3098,
3817,
8071,
2658,
4304,
1891,
547,
1953,
337,
5855,
8095,
6991,
3080,
6913,
8671,
619,
8880,
4566,
9143,
2927,
8130,
8212,
9545,
3828,
2485,
1247,
6157,
3032,
4709,
2138,
6519,
390,
8570,
7517,
2995,
2656,
1284,
8552,
1258,
654,
656,
2085,
913,
6202,
5852,
2288,
8869,
9099,
3422,
9750,
6011,
6582,
1166,
6261,
3991,
925,
4615,
2401,
8950,
7231,
6764,
9371,
6179,
9339,
6327,
5930,
7222,
4977,
9587,
6605,
3985,
7518,
9256,
3102,
2725,
1757,
8133,
9439,
4223,
8904,
7360,
3322,
3398,
7173,
6490,
2025,
9297,
266,
3095,
8383,
8503,
8116,
4570,
3602,
9384,
5296,
4078,
7931,
1853,
4253,
7981,
406,
7200,
9191,
5222,
2427,
7252,
4901,
4172,
9311,
2559,
4534,
3638,
9283,
9134,
3742,
9252,
4589,
803,
9148,
9216,
536,
3091,
5596,
1925,
1836,
5774,
7105,
4767,
6791,
9784,
1099,
400,
4222,
2766,
4082,
5648,
5337,
3529,
4664,
626,
4379,
6334,
3893,
7575,
1309,
5917,
5444,
3693,
4105,
9511,
3731,
1518,
5257,
8297,
5237,
2133,
6332,
7377,
4519,
4136,
9063,
153,
4871,
9763,
8998,
5334,
9540,
6745,
2369,
7605,
2869,
5336,
4143,
1535,
8791,
6572,
9779,
9804,
4170,
6947,
433,
9264,
1697,
4346,
8440,
2540,
2835,
5465,
3171,
1285,
6731,
3669,
7075,
4704,
7594,
4639,
6440,
2191,
2702,
2014,
1945,
1725,
6923,
7448,
5239,
6426,
6326,
7765,
1899,
2582,
3813,
1699,
6021,
67,
3072,
8637,
5801,
6813,
1398,
1212,
8523,
305,
4918,
7418,
3323,
1204,
3485,
2168,
9470,
7569,
163,
5698,
7800,
7067,
3930,
542,
5047,
2589,
7048,
6526,
6700,
1897,
5958,
7792,
546,
1739,
2358,
7130,
3389,
4897,
9501,
2379,
4888,
416,
8589,
7705,
8360,
8465,
9037,
6258,
761,
8670,
7971,
9875,
1345,
3657,
447,
3077,
8897,
2717,
2264,
3447,
2981,
9872,
7992,
4699,
5792,
1856,
9661,
2934,
8675,
5294,
8604,
320,
1486,
8395,
6082,
6073,
40,
2268,
9757,
9072,
2529,
7779,
7731,
8924,
1594,
953,
3939,
8066,
2340,
5307,
6222,
7604,
3860,
5629,
4141,
3279,
9794,
6040,
4661,
9860,
3412,
9029,
4860,
9871,
354,
1960,
4546,
623,
5949,
1295,
6328,
1197,
2788,
4299,
9431,
5628,
6925,
6807,
1156,
6106,
1509,
3948,
1887,
6714,
8048,
9749,
4737,
7074,
7729,
4372,
3559,
9047,
4030,
2684,
7668,
6058,
7119,
6071,
3550,
3367,
8519,
6037,
5227,
9505,
1833,
5045,
7210,
4554,
3265,
7460,
6564,
8790,
4758,
7056,
2048,
3321,
7325,
2671,
6038,
8282,
3359,
2197,
4389,
1104,
608,
6856,
4530,
2611,
4229,
7348,
1661,
7451,
9040,
6344,
3242,
386,
2953,
977,
6624,
870,
9205,
6216,
2643,
1256,
4006,
4350,
5036,
5414,
5486,
2291,
8942,
9373,
6922,
1042,
6022,
9544,
8541,
5575,
9480,
2520,
3532,
2866,
1271,
7351,
4680,
7079,
444,
4280,
4133,
5919,
4766,
4688,
8117,
9463,
3565,
5853,
676,
711,
7312,
6333,
5362,
4109,
5556,
4487,
8427,
5682,
9806,
9168,
7722,
9660,
9652,
752,
2811,
1933,
4574,
3678,
5502,
3571,
9394,
233,
7278,
3976,
7865,
759,
2274,
6610,
540,
5809,
9568,
319,
1808,
5756,
1827,
8860,
862,
7539,
8248,
5733,
5623,
9639,
2199,
4886,
9357,
6122,
4458,
4231,
1980,
4348,
2069,
4660,
4822,
4963,
6657,
6474,
9621,
7688,
9825,
6012,
6593,
8919,
9412,
6512,
9855,
9132,
9196,
4441,
4798,
6523,
8784,
3415,
6902,
6557,
9725,
4551,
5291,
5927,
3089,
9342,
5714,
7814,
5938,
8454,
7851,
8273,
7271,
5422,
6785,
2292,
9201,
6999,
2964,
9300,
9848,
2139,
4016,
1738,
9617,
4266,
7145,
2388,
5724,
2201,
1641,
9755,
4271,
8242,
5976,
2361,
5212,
8809,
5150,
9831,
5908,
9738,
9154,
5645,
2521,
9478,
2204,
1938,
3698,
7043,
8019,
9771,
2808,
3690,
7,
3862,
2424,
8481,
675,
2028,
9826,
6310,
9307,
9647,
9537,
3112,
8110,
9626,
2558,
7266,
6830,
2536,
5604,
5309,
5802,
5149,
9658,
5715,
1629,
1190,
5258,
6112,
5762,
422,
2109,
4964,
4640,
4535,
8036,
8203,
9117,
9329,
1359,
7606,
7613,
210,
6627,
3827,
1431,
5552,
7903,
8346,
1488,
946,
8615,
3310,
9199,
7035,
7126,
6381,
2949,
1628,
4178,
3126,
756,
6580,
9651,
6447,
2781,
2572,
5402,
832,
1919,
1440,
2593,
6229,
1002,
3726,
5882,
6821,
5042,
6007,
5056,
2990,
3695,
7526,
9265,
1927,
7484,
7472,
6701,
1565,
1492,
4831,
8989,
3779,
6234,
6041,
5249,
5215,
7872,
3307,
2757,
2323,
2642,
1318,
511,
7501,
6260,
4227,
671,
8210,
5102,
1776,
1146,
8691,
6814,
1990,
949,
6877,
3016,
757,
4399,
2380,
8143,
7913,
1742,
5911,
3301,
6465,
2436,
7006,
2221,
4317,
3073,
4157,
8067,
9830,
506,
458,
4563,
5700,
1724,
6573,
9696,
9119,
4121,
8668,
6408,
3707,
2319,
1814,
2074,
8898,
8411,
4093,
6270,
6078,
519,
4598,
817,
9489,
7409,
9556,
7374,
5189,
5462,
9308,
9517,
8437,
5438,
3809,
131,
8886,
7453,
5582,
6379,
2056,
5082,
273,
8073,
2206,
6727,
1506,
5406,
9237,
2484,
4998,
4192,
4714,
3785,
1232,
9497,
8816,
6486,
5726,
9332,
6161,
888,
401,
4936,
3934,
7869,
1450,
7483,
7323,
3361,
51,
7718,
2777,
3221,
7815,
8564,
180,
2080,
4049,
7398,
980,
3881,
7509,
7458,
3241,
96,
2033,
7365,
5535,
9406,
3938,
857,
8838,
1241,
3198,
766,
2743,
1592,
9248,
1766,
6781,
8634,
1828,
1523,
9781,
3494,
5987,
1767,
6175,
8796,
7695,
7567,
1413,
1548,
7612,
8269,
8363,
287,
7223,
3350,
6101,
3135,
3519,
4562,
6990,
2253,
1246,
8320,
2844,
9289,
5554,
2486,
1854,
4440,
1411,
8496,
3446,
4359,
3535,
7675,
1614,
448,
6534,
6698,
9253,
2960,
4950,
278,
3017,
842,
7065,
9422,
6626,
5028,
8444,
3191,
1941,
6823,
6138,
6688,
2072,
3880,
4920,
9434,
9791,
8858,
9596,
7808,
7014,
9278,
2532,
4991,
9594,
3682,
2293,
6354,
7532,
957,
1119,
8925,
9890,
8417,
679,
8063,
1879,
6872,
8926,
8322,
4781,
8139,
3074,
995,
3960,
4908,
6194,
4040,
5295,
9662,
5372,
6364,
8436,
6588,
3042,
7926,
5666,
4814,
6976,
9778,
8767,
4693,
2489,
8836,
4958,
490,
3830,
7550,
6135,
9852,
1778,
3585,
5363,
5671,
7196,
8307,
8887,
1121,
5495,
2863,
7912,
9013,
7734,
7585,
5560,
9352,
2325,
8263,
9564,
8569,
9695,
5688,
5748,
2959,
8961,
3115,
8861,
238,
2669,
7219,
3534,
4367,
7455,
205,
2650,
3823,
3041,
8714,
7777,
3258,
3990,
4720,
370,
4113,
5562,
142,
9681,
174,
2479,
3364,
5767,
9764,
7038,
430,
9376,
2228,
2523,
5589,
518,
694,
5200,
7021,
7715,
1810,
5933,
8889,
6665,
9420,
7657,
4353,
3178,
6182,
9533,
8260,
3495,
1848,
568,
3318,
9419,
6998,
4175,
7240,
398,
5951,
140,
1130,
9708,
1844,
4995,
8072,
7921,
3635,
9325,
356,
4586,
6529,
8840,
3071,
5397,
461,
8689,
1537,
4978,
6962,
8219,
3348,
4902,
8686,
59,
393,
9137,
5055,
8708,
8532,
6495,
1239,
4942,
2761,
358,
6938,
3113,
7408,
5880,
1474,
1430,
2600,
8785,
4675,
5874,
4966,
7459,
8957,
3506,
3150,
6203,
657,
6339,
9382,
2311,
4569,
1846,
5288,
6736,
8096,
3712,
5119,
8022,
9400,
2789,
5737,
134,
265,
7372,
1760,
7898,
6404,
7346,
1054,
2641,
7332,
1277,
3413,
6128,
7679,
9151,
2091,
6095,
4450,
2980,
4512,
7123,
4169,
3500,
2458,
9442,
3132,
557,
9847,
9746,
4592,
4736,
7284,
8340,
3561,
4571,
6250,
6015,
8983,
4543,
636,
3825,
9499,
7528,
8165,
1499,
3100,
9458,
2893,
7076,
1103,
7963,
8115,
8292,
5391,
856,
2764,
589,
3325,
1834,
1339,
8868,
8977,
5000,
9550,
3200,
9531,
3028,
303,
2755,
1685,
7005,
5371,
9356,
9275,
1772,
6358,
7258,
4636,
1596,
6857,
3020,
9430,
4806,
6320,
2563,
7052,
3347,
3015,
9491,
5984,
5991,
6100,
1967,
3079,
2170,
1740,
6507,
2273,
5445,
2599,
7771,
4840,
1603,
4327,
2188,
1613,
8834,
9008,
7757,
8801,
7165,
1554,
6065,
53,
2265,
690,
29,
1715,
3397,
3788,
8788,
6108,
8505,
7552,
6246,
8032,
6691,
2597,
2651,
4332,
7696,
2819,
3739,
8728,
104,
6307,
7235,
6670,
3438,
4802,
2922,
1935,
7203,
2351,
9759,
8238,
4340,
6220,
6621,
6149,
4341,
9268,
6084,
1723,
9783,
8938,
7966,
2237,
5437,
5529,
3659,
7891,
6771,
9187,
8449,
3233,
9126,
9663,
9518,
7951,
1626,
4890,
4085,
22,
4793,
3036,
4492,
44,
8997,
830,
5985,
4421,
3010,
9592,
7009,
8183,
7083,
9672,
5773,
2634,
4749,
2622,
2911,
5159,
1543,
9723,
7858,
7087,
3582,
5913,
8055,
1542,
6383,
7767,
6650,
7871,
8350,
1014,
2988,
3887,
6285,
9557,
9583,
351,
6067,
8274,
417,
3403,
6782,
7566,
1644,
4542,
2900,
5111,
3982,
7406,
7556,
8980,
371,
9245,
3475,
8666,
8315,
4789,
302,
3710,
3255,
1153,
4467,
1352,
7221,
2171,
6502,
4462,
2465,
7746,
2596,
4394,
7253,
4258,
1560,
9345,
7283,
5411,
4305,
5127,
7582,
841,
5037,
3665,
5592,
3513,
8623,
368,
602,
182,
9113,
6799,
2315,
6567,
2385,
2487,
495,
7519,
336,
6677,
2151,
2586,
1947,
4880,
4274,
640,
1267,
3119,
3590,
2341,
8176,
4576,
3197,
6921,
7759,
9413,
32,
9012,
3404,
8157,
7168,
8537,
3165,
7072,
1213,
5988,
6661,
4139,
3909,
74,
7749,
6692,
5386,
2919,
2450,
1497,
7697,
5983,
7202,
7581,
5250,
166,
6722,
4970,
7793,
7937,
9607,
3735,
9690,
4581,
8093,
2312,
9632,
7805,
4120,
9189,
7028,
8018,
4525,
7529,
4898,
3228,
2760,
6569,
8712,
2605,
2903,
4015,
6869,
412,
6568,
8588,
4878,
5185,
4166,
1559,
7799,
3861,
4406,
3378,
418,
559,
4195,
3794,
9532,
6978,
6193,
1822,
1516,
7957,
7157,
2459,
3563,
7300,
3604,
2796,
7658,
5982,
8688,
3453,
5091,
1113,
309,
3796,
225,
3050,
8452,
6833,
1138,
2421,
3052,
5574,
262,
1226,
4264,
126,
7644,
9485,
8717,
4027,
3795,
7188,
4735,
128,
1502,
6340,
3498,
7124,
933,
8902,
1162,
9482,
2012,
6994,
7214,
9473,
6207,
4545,
1093,
4342,
4478,
9496,
1467,
6630,
7274,
8020,
4035,
326,
1851,
6169,
298,
4330,
2824,
2732,
7163,
6619,
5187,
5534,
6114,
9194,
5993,
6504,
5971,
1410,
9333,
1021,
2515,
8701,
2051,
2374,
5048,
7212,
6134,
7968,
7000,
8270,
4358,
2878,
4874,
8679,
10,
2083,
9457,
7998,
7359,
2309,
6296,
4126,
6056,
3955,
5590,
6864,
9602,
6225,
8265,
7887,
6496,
3858,
6441,
9416,
1096,
3286,
9158,
4146,
6132,
7470,
4539,
8236,
7536,
8002,
8732,
2283,
3601,
4924,
4855,
8846,
630,
8053,
8525,
3346,
8959,
5481,
1446,
7474,
459,
1882,
1393,
3628,
2714,
7712,
8676,
3722,
5825,
7953,
224,
2090,
8188,
7893,
3904,
2252,
7588,
9124,
8153,
2101,
2184,
1555,
8923,
18,
7207,
6324,
2765,
4077,
6606,
9094,
1992,
5570,
192,
1369,
3759,
5977,
7098,
6983,
6954,
3645,
3054,
824,
5760,
1651,
3419,
4062,
7640,
7003,
5870,
3148,
4331,
1863,
492,
1597,
1910,
4131,
364,
4432,
6173,
6816,
6282,
1494,
843,
6000,
5637,
2623,
9213,
2211,
9161,
5544,
5244,
6196,
2836,
8719,
6348,
6969,
8747,
2729,
2527,
6008,
7656,
5033,
7747,
8561,
2827,
8035,
8699,
7993,
8874,
1937,
9294,
6772,
3648,
4201,
6386,
1444,
6878,
9048,
5836,
1464,
1784,
520,
1107,
1521,
565,
5464,
6055,
1623,
839,
1903,
5137,
9050,
7438,
1088,
4084,
3947,
7839,
3172,
5099,
5912,
3159,
4177,
3493,
2608,
1789,
7363,
3484,
4208,
2396,
365,
6754,
7948,
4603,
6467,
4858,
20,
6547,
2594,
9396,
3913,
6001,
2135,
6373,
6074,
663,
1653,
6476,
6738,
1061,
2510,
3772,
9685,
9331,
539,
4728,
5681,
6045,
3183,
8146,
7040,
5434,
2998,
9378,
3777,
2232,
4579,
4528,
5052,
4111,
9298,
2555,
6835,
5232,
6734,
3820,
5768,
6223,
2026,
1795,
307,
1242,
2818,
7940,
5425,
9068,
4731,
8487,
8894,
246,
3081,
8498,
2590,
8028,
1218,
1321,
8772,
6973,
2040,
6402,
6503,
5140,
6980,
716,
3611,
7094,
7435,
6851,
7089,
1140,
3474,
6370,
6974,
7023,
967,
6527,
4191,
7868,
4048,
809,
1750,
4419,
2591,
1036,
6382,
1134,
7923,
7310,
9280,
1585,
3572,
7752,
5597,
1526,
3589,
3319,
3770,
735,
7476,
8744,
3372,
3791,
1075,
8,
4174,
852,
8266,
407,
4261,
4205,
7383,
6674,
6944,
8097,
2223,
924,
3835,
1954,
5948,
9835,
5603,
5471,
4384,
4196,
1040,
3314,
6961,
323,
900,
133,
5810,
916,
2967,
1660,
3524,
8811,
8489,
2280,
7748,
440,
4326,
7194,
6583,
3213,
7669,
6540,
5030,
5827,
5472,
1581,
1275,
470,
4732,
2362,
2352,
7293,
9346,
4529,
3059,
1454,
7121,
9246,
4772,
378,
9144,
6372,
1465,
5076,
6331,
3003,
5932,
1473,
5176,
8476,
893,
1192,
6912,
6306,
5389,
9157,
2042,
8403,
2054,
3420,
4594,
6352,
5968,
3092,
7060,
6524,
9351,
5655,
3503,
6694,
1080,
1755,
8595,
6423,
9417,
6794,
8217,
5328,
9751,
5470,
2104,
5752,
7422,
8230,
130,
2000,
7109,
6217,
9676,
5830,
3120,
1995,
7959,
7081,
1396,
369,
5366,
4163,
2205,
2298,
1533,
7881,
8308,
117,
2646,
9437,
3994,
5576,
3190,
1409,
5699,
4667,
742,
4287,
1930,
5278,
4881,
5115,
2290,
2909,
345,
229,
4370,
5094,
7982,
7513,
6559,
7115,
7111,
8756,
8958,
5738,
6611,
9520,
2813,
7985,
4753,
2883,
291,
3013,
3448,
5916,
8356,
4012,
1050,
5710,
5723,
6975,
5820,
7410,
8045,
666,
952,
8609,
7063,
4055,
5854,
5247,
4697,
7449,
3340,
9873,
2060,
9446,
5914,
6586,
6029,
3205,
6443,
7924,
1227,
2163,
4696,
1455,
8142,
779,
7764,
9454,
3728,
2882,
783,
9700,
2058,
6968,
9665,
9026,
8955,
149,
4397,
4788,
972,
4909,
8661,
6668,
998,
4928,
2958,
3734,
236,
317,
8283,
4108,
5568,
2021,
8518,
765,
3303,
3790,
7080,
6230,
3599,
782,
1871,
8962,
776,
1567,
4209,
9104,
3033,
7578,
5359,
6195,
1108,
3239,
1754,
8229,
7047,
4472,
4925,
6548,
2010,
8041,
1837,
7781,
1914,
6900,
9182,
3380,
9484,
4005,
6753,
3805,
3501,
9261,
6884,
8311,
5418,
1569,
621,
7492,
9740,
2691,
1530,
5894,
5564,
75,
4009,
2219,
3442,
8145,
882,
8010,
8538,
5369,
6824,
4270,
6254,
2800,
4114,
3743,
2399,
3622,
9169,
7443,
5293,
5457,
1727,
5046,
6829,
8231,
8003,
3181,
7503,
1200,
562,
9862,
7535,
1698,
9844,
8587,
7097,
4739,
8999,
9139,
2704,
3843,
3916,
8522,
9210,
3245,
4775,
5693,
8247,
2259,
845,
8129,
814,
3477,
4296,
7590,
1082,
5649,
5521,
7562,
2792,
1010,
2483,
9857,
1643,
7407,
2719,
5902,
6388,
316,
4765,
5511,
2356,
1637,
2097,
5154,
9821,
35,
8312,
6439,
736,
4090,
9096,
3832,
2007,
2049,
4715,
3312,
7256,
8608,
4606,
2948,
8416,
4760,
5832,
6152,
216,
9882,
6322,
3226,
3751,
6841,
1035,
223,
6148,
1373,
102,
819,
6151,
9360,
5122,
9535,
3268,
8497,
806,
7462,
4962,
7355,
3617,
6515,
9669,
253,
2999,
2639,
1682,
5775,
1296,
6849,
4672,
4547,
8467,
2240,
9641,
3553,
7129,
2137,
8166,
8974,
5543,
1023,
1743,
4052,
9697,
428,
2794,
8692,
2152,
9391,
1711,
8627,
1973,
7416,
5235,
7938,
4269,
5745,
1255,
247,
7520,
1019,
4832,
3035,
8304,
3399,
2839,
2997,
4032,
2318,
9631,
6273,
245,
4045,
6792,
3336,
713,
8820,
1578,
1841,
6795,
8365,
5261,
276,
537,
8766,
8506,
4291,
1047,
6556,
4981,
2488,
1,
1051,
6638,
5805,
4764,
487,
2263,
5633,
3752,
2864,
3997,
7970,
1307,
4371,
5566,
3252,
4127,
6427,
4756,
9150,
4333,
1308,
7632,
4437,
6069,
2453,
1301,
3207,
6224,
8090,
1390,
7349,
8851,
376,
9737,
9452,
1037,
4438,
8956,
1875,
2064,
610,
2454,
3839,
2098,
6163,
7533,
8912,
4820,
2027,
1658,
7584,
3655,
6718,
1868,
2132,
7834,
1541,
7862,
2541,
7710,
2198,
8742,
1038,
2114,
2553,
3437,
7167,
938,
1663,
6834,
3711,
3554,
1955,
5193,
1310,
631,
9599,
1459,
462,
4555,
6788,
1017,
3194,
8226,
2742,
5755,
8908,
3556,
3489,
9897,
9585,
7641,
6533,
2432,
4225,
9427,
9224,
8855,
6397,
9153,
1944,
7700,
3567,
6845,
984,
9853,
9597,
3705,
7224,
7934,
1969,
2539,
4770,
5253,
3714,
419,
8783,
720,
8074,
8151,
6982,
6854,
4674,
8220,
5584,
7750,
5973,
9716,
5164,
9220,
5516,
512,
7107,
4152,
3201,
3163,
4298,
2754,
7571,
1748,
3290,
5990,
3933,
3931,
8984,
2707,
8566,
1253,
465,
7113,
8967,
6471,
1612,
7661,
6822,
1557,
7561,
3873,
1460,
361,
4335,
4198,
4294,
2364,
1610,
3577,
9240,
4303,
3641,
3801,
2316,
2366,
6228,
3316,
2449,
764,
8075,
255,
4409,
2880,
7860,
6625,
5287,
5947,
2182,
5625,
7645,
1842,
4328,
4894,
3338,
4819,
1708,
3720,
6755,
4411,
509,
2721,
9891,
4967,
4578,
6081,
8015,
92,
2475,
4620,
7827,
6546,
648,
7494,
2931,
9424,
9490,
6806,
5651,
2852,
7506,
7624,
2632,
6577,
3799,
8555,
6461,
903,
5245,
3143,
1092,
2173,
794,
7054,
9425,
8228,
4808,
6410,
2621,
5796,
1890,
4129,
3375,
961,
7137,
554,
9103,
5144,
6311,
649,
9404,
9005,
8056,
9643,
840,
8528,
9093,
3798,
5795,
5580,
1045,
404,
1787,
3317,
4395,
1659,
1936,
3746,
2636,
3231,
85,
5940,
1304,
8081,
5327,
4256,
4215,
5992,
1004,
1714,
650,
1793,
1062,
3538,
5729,
6847,
1122,
3486,
6185,
9487,
1647,
8531,
7465,
9035,
8004,
8377,
1233,
4369,
1932,
8576,
2415,
8272,
5315,
9122,
710,
5398,
5182,
6468,
7823,
3855,
226,
7551,
2203,
9287,
6875,
1912,
4059,
9817,
5066,
4493,
7403,
1077,
962,
6751,
3515,
1402,
5833,
9231,
8837,
5758,
7892,
2904,
3439,
2407,
3919,
8914,
6508,
1728,
5881,
699,
4689,
1178,
2216,
7181,
9824,
9864,
1022,
4002,
6419,
6945,
4155,
7036,
6005,
3966,
9856,
8232,
6242,
5106,
791,
4738,
6770,
5377,
5271,
2814,
1532,
3984,
5277,
601,
8446,
2619,
6478,
258,
3615,
8862,
4600,
8674,
1039,
8244,
9411,
1354,
1468,
8302,
4182,
2134,
2065,
4796,
5156,
3039,
6459,
9789,
2088,
2937,
8127,
2977,
6232,
7680,
8802,
5265,
1453,
865,
8669,
4217,
2797,
9372,
8629,
8710,
5103,
6033,
960,
6522,
6200,
114,
3182,
3847,
6028,
7227,
3802,
7022,
4572,
524,
7136,
9023,
2317,
1656,
1855,
9887,
9846,
3166,
7444,
4517,
7990,
5105,
6832,
848,
4324,
5846,
3025,
8144,
2405,
5146,
4643,
8849,
8216,
3989,
1664,
165,
3078,
2257,
1631,
3644,
6312,
6561,
3214,
9350,
9841,
2678,
9516,
5135,
4023,
4420,
5088,
6102,
8136,
3608,
6702,
947,
9774,
7737,
1324,
2564,
3022,
7034,
2448,
6046,
1332,
7564,
9637,
2413,
2110,
715,
2693,
2255,
2749,
7461,
9598,
5341,
823,
4609,
1864,
6023,
5599,
9822,
2327,
5750,
5725,
1691,
9466,
6664,
660,
831,
9768,
9291,
4938,
7086,
4868,
9747,
4451,
2234,
4347,
508,
2570,
3108,
3634,
6520,
1297,
9654,
2807,
8213,
7972,
4252,
3547,
2554,
6363,
1619,
1519,
1201,
3883,
7841,
4948,
9678,
7837,
9238,
4972,
9149,
377,
9538,
8218,
5460,
2105,
2002,
7699,
9296,
6639,
9415,
4716,
1500,
7016,
9192,
2244,
5690,
1657,
4190,
2509,
6170,
6201,
1870,
6896,
653,
7730,
8351,
8645,
4748,
8278,
2247,
6549,
5432,
2716,
6819,
5921,
5505,
2918,
7294,
7478,
2798,
9850,
4483,
4489,
1313,
9472,
5732,
7305,
9105,
3451,
2439,
4621,
4142,
482,
25,
3180,
5782,
1063,
1574,
3569,
6562,
7500,
4607,
3030,
9730,
7230,
8122,
7817,
1101,
549,
9504,
7840,
8396,
4037,
9084,
5888,
7547,
7480,
737,
3557,
2576,
8800,
8289,
6399,
2812,
6401,
9648,
4498,
1982,
8738,
2733,
9070,
2271,
3723,
9849,
5393,
9649,
7663,
6970,
350,
4338,
396,
4094,
7967,
5473,
9249,
1123,
5451,
5355,
5057,
8253,
1522,
7623,
6302,
4480,
261,
6984,
3587,
8994,
1031,
8953,
7303,
7154,
2148,
749,
3269,
2425,
5298,
2567,
1273,
7102,
9156,
2910,
955,
9464,
9071,
1911,
7918,
897,
2633,
9640,
2983,
9053,
3492,
787,
6825,
3754,
8866,
5548,
7534,
46,
8640,
4847,
3730,
1667,
4842,
7066,
2810,
493,
7311,
405,
4612,
3175,
1445,
3007,
5409,
3632,
7211,
8872,
3129,
3891,
789,
5064,
1981,
5875,
9798,
2452,
3915,
9076,
1432,
3220,
5636,
6623,
6591,
8058,
3755,
1340,
7802,
5404,
911,
4678,
5731,
1487,
6375,
1214,
6416,
1311,
5935,
3530,
8070,
2871,
1084,
4561,
5722,
3724,
4014,
9046,
1231,
3922,
7511,
7602,
7889,
7275,
2961,
697,
161,
2771,
3450,
3038,
4433,
6072,
6086,
8793,
441,
6295,
4471,
5824,
5519,
9081,
1043,
6284,
8944,
1425,
3852,
2497,
513,
5381,
3177,
7395,
6891,
1438,
7397,
1124,
9421,
355,
771,
2346,
208,
6153,
587,
4780,
4602,
6405,
9732,
1224,
6205,
95,
9328,
1458,
7106,
4523,
4686,
503,
4774,
3149,
7629,
5869,
8780,
9125,
3086,
7172,
9605,
1745,
2748,
2108,
4665,
7477,
5161,
1958,
4939,
6165,
9167,
8775,
3595,
9255,
3470,
743,
3273,
7682,
1949,
9405,
7932,
1478,
1816,
4560,
8016,
9025,
6774,
5074,
3607,
1386,
8586,
1806,
4851,
5719,
3987,
5,
8262,
7290,
7573,
9721,
7166,
1257,
2150,
9701,
1294,
5078,
7218,
7479,
3027,
9114,
7859,
5937,
3768,
2254,
283,
7155,
7794,
3490,
5989,
77,
8173,
8697,
2547,
5426,
2103,
3658,
1965,
6124,
5884,
4703,
7580,
5823,
5201,
2420,
6911,
504,
7131,
4541,
4132,
4185,
7600,
6219,
6087,
6002,
8011,
2609,
5195,
168,
7652,
6637,
4180,
9312,
4992,
3162,
1181,
7208,
3012,
6652,
1234,
31,
6883,
472,
6020,
896,
8121,
2504,
8167,
7306,
5429,
5943,
4468,
2079,
1531,
6156,
1175,
9017,
3901,
5070,
5188,
3811,
1690,
7456,
7440,
7955,
3953,
3749,
921,
6679,
6449,
7354,
89,
5461,
7382,
7579,
3676,
5652,
6351,
5139,
3687,
1394,
6616,
366,
6602,
7876,
4160,
8782,
6079,
1071,
6236,
8099,
6749,
9260,
963,
3123,
646,
3224,
9022,
6776,
6904,
6643,
1635,
6592,
2517,
6243,
5743,
7543,
1566,
7599,
8385,
2166,
9399,
9174,
8141,
3996,
9176,
7895,
8257,
2331,
2095,
3158,
6143,
3300,
6941,
5879,
39,
3479,
8616,
9267,
9274,
6710,
7198,
1281,
4883,
627,
8155,
4885,
1161,
9506,
6658,
3461,
9541,
7454,
4323,
5325,
5286,
2207,
7936,
4503,
2019,
4179,
190,
4051,
7631,
6145,
6817,
7628,
9761,
5300,
4507,
898,
5860,
9254,
58,
3247,
6918,
56,
7880,
8240,
7625,
4877,
8333,
7437,
8329,
1741,
6178,
7412,
2795,
2571,
4434,
8469,
1361,
5499,
9455,
5401,
2538,
313,
2248,
1906,
6422,
6741,
834,
3021,
380,
4913,
500,
5618,
3393,
5228,
6104,
5332,
2526,
6598,
3965,
4757,
8921,
8168,
4803,
3006,
9374,
3902,
4380,
5896,
1763,
5191,
6723,
987,
4122,
8970,
3625,
2507,
8092,
6117,
7092,
8438,
8200,
1157,
6329,
6550,
3026,
426,
1820,
2660,
1217,
5872,
2496,
8234,
3525,
137,
5148,
7674,
164,
5851,
2466,
5392,
4060,
4941,
2896,
8755,
1769,
1347,
6215,
1718,
9392,
1195,
8769,
6827,
560,
9221,
6479,
6389,
5274,
7375,
193,
3345,
7432,
1089,
2470,
1583,
4390,
9450,
563,
1085,
2985,
3522,
7619,
3238,
2720,
3293,
9355,
5343,
6733,
5842,
2607,
4464,
1507,
6066,
4694,
6400,
7897,
7265,
9792,
4828,
8324,
647,
389,
3266,
792,
2078,
6666,
367,
1406,
6176,
1570,
8393,
5998,
4642,
4882,
8673,
2557,
4625,
2992,
8500,
5049,
7615,
3892,
7726,
9728,
2302,
7387,
220,
3141,
4876,
1630,
5126,
5308,
1751,
6693,
8078,
7431,
2300,
91,
1000,
213,
7638,
5186,
5923,
983,
2165,
5518,
8798,
9385,
1918,
4239,
4307,
7698,
1648,
9859,
3626,
9809,
5657,
4199,
8694,
6391,
700,
1193,
5523,
6042,
3616,
4281,
4064,
658,
2615,
3605,
8579,
6924,
5800,
4103,
1926,
7125,
9323,
5868,
1999,
3871,
929,
6890,
2477,
4276,
4429,
3127,
868,
1322,
78,
919,
2308,
884,
4041,
1437,
4605,
138,
8703,
6939,
2208,
3670,
9636,
4235,
9043,
4388,
7633,
8636,
7469,
2946,
3992,
9062,
2912,
4531,
8331,
6505,
8888,
5527,
6204,
1008,
1388,
4597,
564,
3062,
8794,
4514,
9570,
5620,
8987,
510,
8169,
1860,
9315,
314,
4825,
4650,
1191,
6842,
7809,
7821,
8833,
8553,
502,
8540,
7206,
2039,
974,
8425,
3959,
9225,
6315,
3872,
1649,
4651,
617,
4024,
1956,
200,
5818,
2410,
6317,
4787,
1892,
3045,
8863,
9292,
7373,
6644,
2676,
9388,
8824,
8418,
6979,
7598,
468,
5838,
6294,
4246,
6656,
8695,
4845,
489,
9611,
6850,
8079,
538,
7475,
4491,
6342,
1342,
8658,
9896,
1921,
1886,
8149,
363,
6288,
7095,
8137,
796,
3719,
1830,
6089,
8042,
628,
7843,
8709,
4815,
7770,
5252,
677,
4869,
4147,
1251,
2036,
9858,
4968,
1447,
3186,
1052,
8114,
9133,
8005,
5794,
2321,
4167,
891,
2226,
4515,
9785,
3762,
4254,
5615,
2505,
8508,
155,
1611,
6649,
3014,
5721,
2225,
7169,
6940,
1655,
8317,
2075,
1633,
773,
1350,
5787,
6655,
9620,
5749,
408,
6758,
4652,
7257,
3385,
7118,
620,
5491,
1939,
5489,
3988,
483,
2052,
3552,
625,
249,
1970,
191,
7337,
1346,
6763,
665,
5692,
2971,
2989,
3208,
7037,
8267,
5757,
571,
4365,
7442,
8859,
2809,
9247,
5751,
6929,
4278,
6757,
2901,
5487,
8681,
3306,
16,
7554,
6321,
7344,
3721,
6882,
3341,
1442,
1900,
8807,
4162,
859,
9488,
4500,
2053,
5199,
3043,
8750,
1476,
8844,
5306,
3606,
6683,
7329,
1009,
8823,
3161,
702,
3738,
9477,
1880,
2397,
768,
5026,
1249,
8186,
221,
7241,
1556,
4273,
81,
4616,
9684,
808,
6488,
9884,
7672,
3543,
1732,
1720,
4171,
4701,
8943,
8954,
3652,
5031,
850,
3330,
633,
552,
3144,
1719,
618,
1568,
6963,
3058,
4988,
704,
8413,
1591,
6632,
9553,
9834,
2224,
741,
8321,
5011,
8280,
680,
1758,
6457,
6050,
6855,
1041,
5887,
2628,
6191,
3019,
5068,
7307,
9642,
4915,
9159,
971,
5654,
917,
2034,
2907,
1333,
8607,
5207,
9061,
2617,
7996,
785,
312,
4700,
9290,
3673,
5423,
5778,
3356,
5214,
9515,
8583,
8225,
6826,
469,
9895,
4257,
3308,
643,
1480,
5466,
1076,
2478,
9877,
9578,
275,
170,
4095,
1289,
9839,
1607,
3630,
9451,
9335,
3562,
324,
454,
2217,
4659,
1604,
3968,
790,
979,
9742,
4405,
45,
1515,
566,
1220,
6316,
6120,
9172,
3896,
9712,
1356,
2928,
853,
8359,
4083,
3243,
3491,
6411,
3846,
4424,
173,
1381,
26,
9494,
8491,
1078,
2898,
3533,
3299,
1020,
9383,
7405,
9146,
7434,
9327,
2955,
5812,
5229,
4919,
3409,
6218,
4846,
4130,
8995,
7436,
3328,
4038,
3349,
9190,
880,
8298,
717,
8507,
6308,
2718,
3049,
4407,
8777,
644,
6221,
9120,
3424,
1205,
9702,
9435,
2440,
2227,
5475,
5856,
5850,
8338,
8606,
4927,
3405,
8164,
3257,
4107,
6469,
6636,
7328,
6162,
2009,
5478,
6107,
4723,
6685,
8946,
5706,
8291,
5125,
2269,
1184,
4710,
6183,
3068,
7941,
5075,
188,
3429,
1158,
9832,
6155,
1335,
6154,
5290,
4068,
8059,
5867,
1782,
5039,
7122,
9753,
2531,
8126,
9894,
6197,
6159,
60,
7341,
8107,
5010,
5892,
5537,
7608,
8138,
4585,
5766,
5999,
8828,
3646,
7701,
1274,
7385,
9820,
4896,
1150,
7723,
4573,
669,
1418,
6720,
3009,
198,
7112,
6725,
6543,
129,
4973,
5847,
1116,
8657,
196,
1427,
6462,
2438,
812,
3732,
3271,
7061,
861,
9226,
4148,
7414,
5572,
7829,
5025,
1059,
8602,
2368,
7464,
5746,
4193,
5231,
615,
8206,
3526,
394,
8550,
4046,
2127,
7345,
8521,
6642,
285,
2966,
6451,
8642,
1540,
9444,
2954,
6158,
7538,
7975,
8735,
6953,
6453,
6796,
5944,
3951,
3248,
6275,
932,
2941,
8103,
7366,
7788,
2092,
7665,
3911,
5312,
4638,
1477,
5219,
158,
959,
3639,
760,
6899,
585,
3234,
6227,
9177,
4631,
9671,
2126,
7246,
3370,
2106,
2013,
3536,
8530,
6264,
3189,
9359,
9214,
3305,
2297,
6880,
3256,
2282,
2422,
9719,
7902,
7020,
4778,
1366,
8726,
1666,
5275,
5015,
4153,
2978,
3580,
9800,
1931,
9667,
941,
3070,
8741,
5273,
6105,
1252,
8376,
9483,
5044,
6380,
4695,
5439,
6604,
9508,
6646,
7334,
139,
8778,
5619,
7085,
826,
6840,
7927,
9653,
3782,
9802,
6268,
6576,
2745,
4849,
2256,
2544,
7908,
3249,
7026,
6466,
1586,
7984,
1387,
9344,
3294,
3583,
7886,
4821,
7233,
8316,
1260,
4854,
5727,
335,
5279,
4448,
6952,
4234,
8653,
9409,
8893,
8135,
2338,
5089,
7504,
5813,
3518,
4240,
3696,
3458,
2848,
7899,
7622,
1112,
3109,
4702,
7057,
7264,
5901,
2556,
1602,
2275,
3488,
5405,
8207,
8847,
8578,
8546,
672,
9398,
9001,
7706,
9403,
8457,
2023,
329,
3463,
7807,
5950,
5720,
3650,
6092,
1923,
8722,
662,
1676,
23,
9657,
7960,
6574,
4792,
9675,
3957,
7713,
9524,
4708,
8050,
3250,
123,
1132,
7630,
7502,
8557,
4391,
9808,
1154,
7775,
9212,
6325,
3822,
5431,
3620,
9438,
7070,
251,
5221,
1382,
3769,
5310,
6629,
9543,
8891,
3651,
5223,
3586,
3633,
2393,
3131,
7727,
7296,
2241,
395,
7463,
5686,
2661,
9095,
4681,
7714,
7553,
9443,
6544,
5695,
8191,
3427,
8649,
1700,
7171,
3958,
678,
8620,
6713,
8910,
6434,
2061,
2001,
1312,
5233,
5467,
5835,
7863,
9338,
3510,
7950,
1100,
3134,
612,
260,
6865,
2665,
8577,
3797,
5009,
828,
3433,
2826,
7870,
4979,
902,
6252,
7308,
4288,
8582,
2491,
7242,
976,
5104,
726,
4104,
1395,
8617,
6110,
4624,
2698,
5704,
1695,
4608,
7690,
9795,
8409,
1378,
4990,
5807,
9492,
424,
453,
103,
517,
3423,
1208,
7090,
4219,
7249,
7614,
415,
5421,
2016,
9218,
3663,
4611,
9277,
5118,
4439,
3713,
8992,
9127,
84,
3523,
4204,
6403,
288,
2306,
5545,
3889,
1683,
7795,
5345,
7441,
6697,
8084,
7128,
7362,
515,
7523,
9244,
7974,
5236,
4511,
567,
7574,
4220,
9801,
9170,
4717,
8867,
2612,
6281,
263,
9558,
514,
5492,
9735,
731,
966,
8663,
3596,
3979,
4140,
5373,
3699,
6338,
4976,
965,
219,
2735,
2063,
8982,
9142,
8864,
594,
5609,
1737,
8064,
5816,
1609,
7704,
7272,
1032,
24,
7352,
2350,
9498,
5184,
7187,
6413,
709,
344,
7482,
4989,
4410,
5703,
8852,
4923,
3358,
3334,
1114,
6357,
4622,
2647,
7204,
7289,
6955,
4817,
8817,
5384,
3116,
8108,
7537,
4800,
334,
7811,
101,
5335,
3807,
6958,
7754,
9340,
6131,
4907,
8224,
7244,
8106,
6542,
4336,
8161,
9007,
1168,
1048,
7190,
985,
805,
2035,
4284,
5289,
1753,
5979,
6631,
8646,
7744,
7099,
4466,
3391,
8932,
6286,
9288,
2057,
9064,
5953,
9087,
614,
2663,
7342,
9886,
767,
4262,
5375,
3066,
7108,
9845,
2659,
7135,
5442,
6603,
2456,
6137,
8568,
5785,
3366,
5380,
2944,
7140,
93,
4422,
7780,
1680,
438,
9881,
1985,
866,
5678,
2780,
2962,
9092,
1348,
9503,
9208,
5098,
4645,
8379,
197,
9868,
8412,
9018,
240,
1652,
8132,
3874,
70,
9065,
2392,
3147,
2345,
659,
2763,
7928,
8647,
5479,
2994,
6010,
7618,
8715,
9234,
1155,
5776,
1426,
6090,
499,
8246,
3593,
6936,
2583,
4360,
5020,
9880,
2067,
2786,
6350,
8364,
5926,
8856,
2779,
9722,
5417,
9223,
7318,
4381,
732,
8113,
9090,
8198,
2213,
4474,
3566,
5420,
7653,
8464,
8448,
2618,
8543,
7110,
8193,
7620,
2861,
2530,
3130,
5463,
3581,
6517,
1625,
639,
5014,
3681,
6901,
347,
6269,
901,
2750,
874,
1692,
4553,
5419,
9571,
1993,
2524,
5634,
6123,
2258,
2230,
2100,
2806,
3970,
4666,
2829,
5248,
6696,
3546,
2916,
3368,
7838,
3647,
4850,
5226,
1198,
2674,
7078,
530,
2577,
1694,
9547,
2603,
9302,
9102,
4445,
5483,
4102,
9347,
5129,
5084,
4509,
3679,
211,
1367,
1029,
443,
4001,
1780,
8148,
7232,
5931,
2649,
228,
722,
1988,
8086,
2142,
8547,
7763,
9088,
2284,
167,
6091,
4943,
3691,
1389,
1552,
9762,
5428,
2816,
1997,
1726,
4649,
4745,
8698,
8017,
5772,
5981,
827,
4221,
1819,
5934,
5627,
7856,
7922,
9876,
1773,
5338,
1977,
6335,
2770,
6687,
2164,
473,
486,
4726,
5650,
9381,
9811,
5443,
5018,
4593,
9082,
9326,
6589,
8727,
7228,
527,
2859,
8408,
1397,
3215,
6805,
4691,
362,
7769,
3121,
1326,
6510,
5112,
4470,
9628,
5131,
6653,
4635,
5540,
5041,
1327,
8327,
1336,
9353,
3766,
6873,
4404,
254,
2372,
5602,
4415,
6063,
6563,
9563,
2653,
3750,
4863,
5829,
5360,
3114,
4754,
6171,
4477,
9686,
7874,
2921,
6054,
5206,
9115,
3160,
3812,
9318,
8667,
2267,
8201,
6396,
1142,
3076,
9888,
5494,
6387,
7954,
668,
871,
4453,
3164,
4376,
8979,
5320,
9612,
425,
5165,
8896,
6579,
9232,
1177,
1968,
8239,
9493,
9165,
9230,
2513,
2125,
1679,
8559,
5376,
7647,
6374,
9052,
9334,
71,
7906,
2018,
7825,
4374,
6140,
209,
1994,
9358,
8424,
7321,
1357,
1223,
3700,
5595,
4797,
4277,
5508,
5497,
8463,
2775,
526,
8493,
2664,
8182,
8702,
5675,
3304,
5117,
4203,
7150,
3629,
6003,
4413,
6290,
9530,
7353,
8737,
4721,
1790,
9282,
5152,
2566,
6454,
5267,
2390,
739,
1270,
7313,
5844,
8762,
8628,
55,
7116,
7261,
1222,
8895,
4029,
8843,
6368,
4783,
7008,
7499,
3505,
1876,
4974,
1293,
4485,
833,
3410,
9775,
8300,
3531,
6735,
7725,
476,
8447,
9306,
6035,
109,
9295,
1139,
1471,
5400,
1975,
825,
107,
616,
4345,
8759,
7728,
7516,
1422,
6560,
6233,
4443,
6853,
5459,
5858,
437,
1355,
5611,
9579,
5593,
7962,
3225,
6292,
1331,
9110,
8439,
4784,
9688,
1141,
3137,
7045,
5453,
5843,
3574,
8150,
8931,
475,
3683,
4430,
4900,
5280,
7724,
1007,
3908,
1849,
2739,
7738,
5676,
7392,
152,
5646,
7639,
5779,
629,
6907,
4954,
4827,
5027,
9089,
2116,
3363,
2933,
6812,
8407,
7952,
802,
1441,
3977,
2136,
2715,
5192,
7776,
1363,
1961,
4743,
7525,
1102,
691,
3170,
1417,
7439,
3573,
3031,
9575,
5498,
8761,
8941,
4329,
1170,
575,
5043,
1571,
1976,
6436,
1097,
2595,
3684,
1589,
531,
8034,
97,
8792,
4932,
6245,
6780,
894,
6013,
3609,
6181,
9100,
1722,
6620,
3940,
3926,
2688,
9285,
3624,
8323,
9656,
6948,
7846,
7285,
9586,
9589,
2929,
6784,
1762,
4644,
2022,
5029,
8062,
7621,
5086,
5130,
6597,
3810,
7336,
5387,
5790,
154,
2314,
6659,
8835,
8344,
9519,
244,
6525,
5493,
1792,
8693,
6740,
2474,
1575,
3899,
1996,
1319,
6017,
7601,
2029,
8094,
5583,
6184,
9075,
9745,
239,
1761,
2365,
4230,
9033,
3727,
4823,
5905,
6393,
9433,
9195,
2982,
1858,
9513,
3024,
5449,
3869,
4795,
1334,
3285,
9203,
6894,
2782,
8971,
1171,
3924,
7170,
1461,
4658,
14,
4848,
4879,
4031,
1734,
5061,
6367,
4426,
8883,
382,
3688,
4985,
5728,
5080,
6487,
2832,
4417,
3540,
2236,
3999,
3747,
2785,
5433,
9687,
8831,
1668,
8038,
595,
5712,
6761,
4799,
1796,
4226,
8948,
4588,
8751,
6669,
7514,
7270,
8434,
8969,
7560,
1457,
1857,
3631,
3297,
9147,
7798,
8804,
9724,
2620,
7597,
8795,
5647,
1909,
613,
36,
9299,
4238,
115,
6475,
6480,
9067,
2286,
8007,
8309,
5209,
9878,
2939,
2624,
3921,
5109,
930,
5390,
8945,
5205,
5696,
144,
2055,
6113,
6121,
7512,
7058,
3046,
8850,
1885,
3230,
9614,
2169,
6719,
6868,
1211,
2906,
1173,
6919,
5477,
2847,
2046,
9829,
6083,
3274,
4393,
2059,
5058,
8630,
7183,
6349,
4516,
4058,
5323,
5954,
5354,
2447,
5490,
6168,
127,
3382,
7185,
5608,
3053,
7417,
7660,
5814,
8700,
328,
774,
4891,
1302,
3935,
5848,
5113,
63,
954,
449,
4627,
5263,
6376,
6077,
5067,
574,
1907,
2703,
178,
9646,
7010,
2433,
3877,
1115,
1794,
8293,
3981,
7073,
1823,
2519,
8736,
9692,
7905,
590,
1194,
8172,
2324,
6686,
1952,
3962,
8134,
8660,
1504,
1230,
8455,
2337,
9673,
1562,
7740,
9867,
7785,
7404,
7215,
1703,
4092,
8047,
920,
9893,
8601,
2853,
1573,
928,
256,
4100,
1746,
7637,
6111,
4149,
6531,
4601,
4496,
4657,
9006,
1785,
3351,
1710,
1508,
6239,
5716,
5915,
822,
8878,
6578,
7468,
4073,
2082,
7687,
436,
2511,
5639,
9788,
2602,
821,
9369,
2758,
2322,
5069,
259,
1056,
7835,
8632,
8347,
2047,
7368,
5452,
4762,
1684,
2003,
2668,
7572,
9000,
3335,
904,
753,
6671,
5415,
2143,
2902,
2124,
3923,
2695,
4595,
7245,
1001,
682,
7942,
3326,
8069,
8922,
7820,
9080,
7904,
3662,
5741,
9509,
1765,
661,
2965,
1421,
7689,
1364,
1044,
4197,
926,
1798,
7944,
9206,
1770,
4349,
4533,
2272,
3104,
257,
3103,
7508,
423,
2418,
6455,
4150,
6705,
455,
9870,
9874,
432,
3773,
1344,
2030,
4447,
5007,
1034,
8030,
3775,
4476,
7446,
1261,
1262,
2200,
1866,
2936,
7961,
2828,
2371,
1950,
6371,
9365,
5900,
7973,
7033,
2891,
9002,
5110,
8445,
4364,
5021,
6032,
7213,
3469,
4408,
9211,
7347,
3776,
3907,
1189,
7380,
2398,
2043,
4965,
4293,
9281,
6353,
9523,
6142,
4137,
9677,
541,
1065,
339,
5791,
2503,
6392,
7524,
5753,
5806,
6472,
604,
5965,
4912,
4363,
7555,
4021,
7782,
7558,
7796,
1049,
2950,
3383,
8420,
5769,
5196,
1485,
8382,
8171,
6103,
4906,
4549,
522,
9123,
9459,
7450,
1060,
6957,
6680,
3462,
7320,
5408,
5689,
7247,
4864,
1399,
2463,
572,
7976,
1801,
8696,
6345,
3917,
8046,
2276,
9020,
8369,
7736,
4961,
5145,
9805,
8690,
8533,
9207,
4275,
7055,
8177,
6553,
6946,
9354,
9691,
3034,
1510,
308,
3155,
4319,
6803,
5181,
4790,
9559,
8574,
5032,
5012,
352,
6981,
8475,
9003,
9200,
6167,
3153,
2377,
8332,
7024,
6704,
1265,
8598,
3251,
4212,
3357,
6995,
7234,
6809,
7694,
6640,
90,
2437,
348,
2894,
4917,
1678,
7049,
9059,
1235,
5092,
8147,
6558,
7384,
264,
4810,
4630,
5170,
6585,
4750,
4456,
6417,
3244,
8197,
9367,
4933,
5350,
1436,
5865,
8080,
3355,
402,
4056,
1127,
9810,
8916,
3592,
8399,
1215,
3618,
9045,
6034,
105,
7027,
3212,
2261,
1704,
6614,
6717,
9709,
858,
6767,
7101,
8871,
8716,
9235,
9183,
2626,
1012,
9186,
7082,
5997,
1149,
9032,
2834,
6778,
724,
2189,
6612,
8343,
4911,
7201,
3507,
1111,
5403,
9731,
5891,
3090,
3906,
82,
1768,
1416,
1544,
8202,
7488,
8380,
1415,
4428,
7818,
6893,
7199,
3793,
1371,
7692,
6800,
7419,
1268,
1804,
3780,
2514,
2404,
5503,
7041,
387,
6064,
1946,
3455,
5284,
5238,
6906,
2598,
3261,
2670,
5578,
5972,
4206,
4316,
8040,
6248,
4751,
6748,
9807,
9776,
3443,
8389,
2378,
427,
9016,
9180,
8821,
3487,
4457,
2791,
3202,
8352,
7527,
8374,
3844,
6743,
8368,
301,
2032,
5339,
4232,
3267,
5780,
9865,
3302,
8814,
8900,
4354,
6747,
1706,
6798,
3868,
3558,
2307,
5262,
379,
9272,
7751,
8252,
4986,
8290,
1873,
6362,
2494,
945,
8644,
2077,
4314,
8648,
6709,
5713,
6319,
8184,
3882,
4181,
7643,
8510,
4729,
738,
7350,
7988,
1320,
3898,
1401,
1924,
982,
57,
1701,
1665,
5624,
591,
1991,
9551,
4054,
6360,
6214,
1385,
7787,
477,
8966,
8337,
7929,
145,
5786,
5883,
8486,
4687,
5600,
7741,
777,
6815,
7133,
1545,
3588,
3292,
7153,
970,
2920,
1749,
3642,
1707,
8734,
7156,
800,
2235,
5667,
6343,
4596,
6271,
9780,
9445,
338,
9361,
1987,
7861,
6460,
4769,
8516,
175,
7850,
4807,
3671,
2849,
2179,
421,
6681,
2751,
2287,
3821,
207,
3527,
7399,
7801,
1915,
8294,
1287,
9178,
7343,
3761,
3763,
2736,
3263,
435,
2604,
1717,
9173,
8758,
9507,
7890,
7786,
968,
4375,
7854,
3483,
6300,
8753,
342,
2502,
3222,
2841,
8163,
9077,
3878,
1185,
7386,
7364,
6783,
5663,
2913,
1428,
5095,
7684,
5002,
532,
3613,
7595,
3065,
6648,
5367,
8544,
5385,
795,
4734,
8458,
353,
4454,
1829,
3400,
5849,
80,
8077,
7176,
5571,
3236,
3560,
1362,
7789,
2979,
8625,
1859,
9054,
8965,
9760,
4377,
9293,
2129,
5708,
6801,
8599,
3774,
9879,
8258,
1800,
2986,
9162,
6793,
6595,
4873,
4866,
9606,
3199,
5585,
6463,
3067,
1802,
3468,
1083,
2376,
6119,
8664,
2899,
1405,
5601,
8571,
769,
8873,
950,
5946,
4685,
8752,
3496,
4550,
9567,
3842,
2778,
4494,
5100,
9461,
6139,
4647,
9042,
450,
1408,
442,
8881,
5622,
2690,
3418,
2015,
1187,
8295,
4921,
1646,
7396,
721,
3291,
4168,
5730,
1419,
2730,
1797,
9370,
1696,
2885,
222,
5435,
801,
4987,
4875,
6516,
6960,
4619,
3643,
3476,
6244,
7853,
1299,
4373,
4501,
8013,
9239,
4488,
1179,
1847,
1877,
2209,
9055,
1584,
5194,
835,
8551,
7949,
3051,
4637,
1599,
4279,
6594,
3660,
8665,
2446,
730,
7335,
7304,
886,
5924,
4161,
799,
61,
1901,
2917,
4583,
1902,
5488,
5591,
5717,
3005,
6036,
8968,
632,
2330,
4899,
9584,
6903,
3564,
3521,
887,
6820,
3697,
315,
7810,
3767,
7147,
2692,
3875,
3838,
6435,
3354,
3816,
8882,
7910,
9574,
4362,
5975,
1314,
9389,
9079,
8765,
6879,
8593,
110,
9706,
1577,
6,
2508,
4752,
6341,
1588,
3087,
8749,
2935,
4853,
1716,
2799,
1671,
2196,
7068,
4599,
1030,
3680,
9680,
4188,
3101,
5626,
3117,
4663,
3369,
5783,
4022,
5096,
7739,
1511,
975,
2266,
6027,
1553,
600,
6494,
3324,
5500,
6186,
3280,
8406,
5342,
9569,
6647,
4243,
9039,
4711,
2093,
8832,
8339,
8211,
4398,
4604,
1702,
6047,
7297,
21,
2431,
47,
8474,
5747,
4236,
6192,
1091,
4469,
501,
5276,
4202,
2167,
3342,
73,
553,
8111,
7681,
1838,
580,
8215,
7626,
2873,
9217,
159,
4812,
388,
1687,
7596,
8830,
7093,
8456,
8451,
6866,
2037,
3139,
4755,
7607,
5351,
8027,
6255,
2679,
1412,
6437,
1595,
8205,
4843,
1186,
1972,
5311,
49,
8120,
3870,
1638,
2630,
2673,
2579,
9714,
3993,
7828,
4771,
1470,
951,
2416,
5073,
6147,
3576,
1605,
1269,
7943,
2501,
2076,
8876,
1264,
9316,
4852,
8118,
4272,
6226,
5121,
8572,
480,
8639,
3502,
8388,
5661,
2387,
3937,
4922,
4123,
3047,
118,
1620,
8187,
7772,
5549,
3467,
2727,
6279,
5734,
2731,
3912,
4895,
9790,
4782,
9038,
7002,
3701,
6125,
2153,
8529,
1248,
8335,
6024,
7378,
8933,
2128,
2332,
4673,
269,
8319,
9590,
7920,
2305,
4892,
3804,
2329,
7189,
2915,
2005,
2175,
4125,
3465,
6291,
8426,
7521,
7878,
5183,
5230,
183,
1095,
1621,
9009,
6766,
5876,
3865,
5873,
3808,
6299,
5586,
7401,
1520,
6283,
2870,
8008,
2020,
2974,
2565,
2400,
8643,
8009,
4662,
6752,
2411,
1730,
1377,
645,
6052,
1349,
8718,
3537,
6762,
2412,
9627,
7655,
8884,
3967,
2160,
7134,
8060,
7720,
4482,
2231,
381,
6667,
1120,
4356,
6937,
3980,
1713,
6909,
7088,
6177,
7309,
2381,
6895,
3411,
3803,
6862,
3426,
4568,
6645,
451,
1433,
6048,
3946,
5903,
5687,
8542,
9140,
7848,
5022,
5062,
9175,
5220,
6926,
6253,
8909,
8052,
7447,
9116,
4836,
2561,
9813,
6997,
8917,
4668,
237,
5605,
1888,
7174,
3008,
1484,
3431,
3771,
6309,
6394,
2359,
818,
3668,
5083,
3886,
1835,
9129,
3932,
5906,
5770,
1650,
2492,
8006,
2328,
8461,
4436,
6678,
2551,
1783,
2969,
5302,
9618,
121,
651,
9682,
5301,
1243,
7226,
4118,
923,
3169,
8972,
2174,
2842,
3963,
8687,
8633,
2233,
3961,
4835,
9136,
250,
7609,
1288,
4224,
9197,
6442,
6729,
8479,
9615,
2294,
2722,
4283,
9019,
9179,
8082,
9386,
7719,
6708,
5763,
9418,
4867,
2610,
6551,
9536,
8618,
7317,
4656,
6438,
712,
4824,
6607,
8423,
5893,
837,
8249,
4698,
3344,
770,
7544,
6859,
399,
6707,
2180,
9699,
4719,
3692,
2471,
6804,
2334,
7339,
2304,
3464,
4292,
2031,
4931,
5632,
4617,
1420,
5587,
890,
7965,
4173,
7216,
7411,
3621,
2972,
4159,
4655,
2279,
2862,
2574,
4020,
9204,
6965,
5225,
4081,
6545,
1443,
1624,
3064,
9510,
2495,
6615,
8037,
4505,
8515,
50,
9397,
8255,
1152,
2865,
2260,
37,
76,
1016,
2876,
9155,
3539,
9109,
4301,
2493,
9021,
5329,
6208,
5788,
1832,
872,
3876,
7425,
5353,
9828,
9707,
215,
6266,
1503,
7812,
8730,
4089,
7059,
6198,
1372,
7192,
280,
4214,
1028,
7298,
7427,
6726,
8740,
8512,
8545,
2070,
573,
8517,
7522,
3343,
7012,
9603,
2550,
9573,
3983,
9711,
5831,
1817,
7947,
5920,
7044,
4746,
3288,
5513,
2460,
2872,
2242,
8281,
7007,
6690,
2516,
4818,
846,
2277,
2867,
4289,
1315,
996,
6673,
3218,
9827,
9613,
3362,
3854,
2987,
7685,
7445,
2860,
5347,
1216,
2772,
5970,
6070,
8721,
5050,
4176,
5536,
3516,
9028,
9432,
7591,
2776,
7991,
9843,
293,
1131,
5561,
1323,
9098,
598,
7430,
4971,
655,
4508,
550,
1905,
7693,
6750,
6846,
2804,
8713,
1957,
8483,
8733,
4779,
935,
8204,
6917,
7677,
9074,
569,
1383,
733,
3444,
4929,
906,
3174,
9304,
7717,
2218,
705,
7071,
9525,
8603,
9321,
9044,
9591,
4813,
4378,
5966,
2382,
268,
7117,
3756,
3845,
7381,
7138,
330,
2840,
6837,
8152,
5133,
4036,
3895,
9164,
8391,
2468,
497,
8624,
6892,
8787,
7178,
1325,
2926,
9320,
2172,
7053,
5594,
1392,
1501,
915,
2884,
5448,
5952,
4065,
2728,
1686,
4233,
1338,
8488,
4187,
9317,
3850,
2654,
3107,
6116,
7161,
9060,
2367,
5547,
6414,
2443,
2185,
8594,
5784,
8105,
4249,
7269,
9601,
9644,
1645,
8842,
2874,
5123,
7393,
6541,
2738,
5702,
4339,
7852,
4460,
1525,
3584,
9101,
385,
1546,
2141,
1775,
9049,
6188,
3352,
132,
5034,
3548,
4791,
734,
7634,
48,
1498,
8655,
9548,
1202,
6608,
1580,
4071,
5166,
1290,
5996,
7491,
3471,
7702,
3193,
7732,
391,
2943,
5038,
2637,
4618,
8745,
7836,
1916,
8065,
8905,
146,
561,
927,
5346,
8903,
4117,
8996,
6127,
2112,
4119,
4682,
2118,
1165,
1881,
9209,
2851,
5051,
8812,
5857,
5664,
5707,
6930,
1360,
8524,
7842,
6144,
9222,
6501,
2370,
4300,
8054,
1889,
2877,
992,
864,
9600,
664,
7229,
2278,
7766,
2289,
4164,
695,
1688,
5143,
7251,
7896,
6059,
1654,
6428,
4654,
6277,
1850,
8371,
811,
3329,
6779,
9576,
1110,
7510,
2406,
6369,
1731,
5282,
4343,
124,
120,
8214,
9604,
5573,
2480,
2017,
7758,
5124,
5684,
876,
9215,
8591,
98,
9769,
1424,
4794,
5198,
2629,
8596,
9527,
7467,
6238,
1781,
457,
535,
2299,
9276,
1549,
2451,
6099,
3975,
3145,
684,
9734,
2435,
5255,
9057,
892,
4513,
4944,
8453,
5348,
5512,
6492,
4955,
4285,
9748,
763,
4763,
6330,
5967,
781,
4368,
6160,
9229,
8724,
3598,
282,
6187,
8707,
576,
8381,
8754,
4079,
206,
194,
6887,
5163,
270,
184,
4610,
622,
4747,
9266,
6933,
9736,
6663,
5579,
7193,
6482,
111,
7917,
4940,
5480,
4997,
6931,
6489,
8043,
8460,
8786,
9838,
997,
728,
7481,
5514,
9286,
6635,
4916,
2833,
3786,
3591,
4552,
8189,
1971,
3717,
9030,
8651,
7423,
42,
5264,
1145,
5396,
1747,
8565,
1948,
1752,
3853,
4033,
1579,
5234,
3069,
5171,
7495,
6739,
6356,
1922,
2360,
1183,
318,
1563,
5641,
7745,
7873,
597,
599,
7498,
6314,
6786,
5211,
3002,
3956,
4633,
8243,
6622,
6797,
6424,
3884,
2762,
9309,
6146,
9271,
4158,
6618,
3327,
943,
2672,
7549,
829,
3667,
7330,
4423,
5826,
877,
8428,
5482,
1240,
9447,
936,
8334,
1978,
6721,
4706,
1365,
5081,
6448,
8991,
9111,
7548,
5379,
9128,
9241,
5939,
746,
7424,
1317,
4903,
6076,
4564,
3425,
609,
6164,
6452,
8241,
9024,
3612,
6773,
8622,
4392,
5955,
3511,
7883,
5515,
6746,
4994,
9456,
9796,
2335,
6318,
5517,
112,
6061,
6068,
2373,
3614,
3555,
1090,
6956,
3142,
6109,
5889,
8326,
2295,
999,
5711,
6141,
2102,
4839,
2140,
7570,
3818,
414,
8580,
7901,
65,
9414,
8088,
5941,
7179,
6323,
2473,
6943,
5705,
277,
3011,
3088,
4442,
7018,
179,
1600,
8975,
2924,
7884,
8563,
6377,
3481,
9171,
7182,
6521,
6575,
2467,
9242,
2096,
5469,
3600,
1174,
3000,
6499,
6240,
8976,
6094,
9560,
8952,
9108,
8250,
463,
5304,
2528,
2159,
1069,
3610,
2262,
8746,
1151,
2756,
1058,
5522,
8768,
6518,
3246,
581,
3401,
5352,
6810,
4632,
7340,
6584,
9467,
7148,
2402,
6587,
1298,
4905,
8279,
1278,
6265,
9322,
52,
9582,
9181,
3192,
7371,
289,
922,
8935,
3060,
5190,
2580,
7267,
994,
9135,
3146,
6346,
1219,
912,
64,
2696,
4310,
4538,
9145,
341,
5864,
4004,
2229,
2455,
4070,
5272,
4344,
471,
8621,
1617,
4841,
986,
7989,
3905,
135,
1825,
4194,
9812,
7262,
1228,
4999,
4565,
6130,
1475,
3157,
7616,
5313,
9689,
7925,
6728,
5563,
4521,
5016,
5803,
2908,
413,
2723,
7831,
6189,
8174,
3099,
11,
6190,
9818,
9141,
3432,
5174,
9015,
7415,
8981,
6098,
7762,
2357,
9840,
384,
8068,
9036,
8810,
4050,
8535,
9228,
4490,
748,
683,
5845,
5980,
2176,
5333,
6249,
2155,
1764,
6828,
8354,
2938,
3757,
4098,
1852,
5132,
8763,
3888,
1276,
3649,
7184,
8949,
7361,
4247,
5128,
9407,
1106,
7487,
5509,
6777,
4019,
686,
8472,
5157,
6016,
9462,
9112,
2945,
9670,
2747,
4387,
8659,
3296,
875,
7577,
9772,
1376,
6870,
2952,
8534,
8774,
6802,
5660,
3083,
3903,
4011,
1788,
2394,
19,
3128,
9572,
9107,
5167,
5691,
3402,
8223,
9056,
5617,
8400,
1527,
9118,
5496,
7452,
8119,
7158,
4722,
8325,
1517,
5995,
3741,
8102,
6293,
5709,
6429,
6025,
6905,
4713,
9269,
9786,
8288,
6730,
3778,
7646,
4427,
466,
8947,
2310,
9426,
2897,
5640,
8711,
5817,
8170,
3125,
6289,
1989,
3765,
2976,
4237,
9362,
491,
7273,
8473,
3971,
8940,
4960,
5203,
9185,
6097,
2301,
7946,
3057,
1199,
3272,
5116,
7046,
2008,
3920,
3504,
7391,
6942,
4744,
373,
2697,
6634,
1245,
9638,
6366,
7277,
5613,
529,
3282,
2250,
5897,
5668,
969,
3837,
3388,
4435,
8478,
7774,
5436,
9121,
6129,
7708,
9279,
2993,
4884,
4355,
4412,
5382,
6473,
9014,
7958,
2635,
8549,
8913,
1070,
1244,
2326,
2343,
3259,
7104,
8245,
4000,
2194,
9219,
9758,
5798,
411,
905,
3694,
2347,
4311,
2461,
4683,
7281,
7670,
3685,
8764,
7855,
4463,
5107,
3122,
6199,
7587,
4017,
3706,
5321,
186,
6932,
4334,
762,
4934,
7379,
8330,
1011,
148,
9854,
6838,
3936,
1305,
939,
4295,
6231,
7857,
9004,
9514,
1721,
4260,
5969,
4741,
3900,
3211,
7225,
4047,
9561,
5718,
3056,
1564,
7651,
3206,
4200,
2740,
804,
5458,
8443,
2214,
5569,
1913,
1813,
4315,
3703,
7541,
151,
3227,
7783,
3376,
467,
7069,
9823,
1238,
3,
7389,
8401,
1512,
9782,
6993,
5653,
9729,
2657,
2613,
6908,
5685,
5151,
6019,
6989,
2428,
5541,
937,
214,
171,
1639,
5394,
8781,
9258,
5885,
3480,
2706,
4837,
624,
7248,
479,
3390,
1263,
3949,
2843,
230,
9152,
1729,
8789,
5680,
2086,
5507,
3473,
793,
5340,
3783,
2469,
8650,
942,
8271,
235,
1067,
6581,
6898,
2045,
4097,
5446,
7678,
5501,
8494,
9251,
8631,
1236,
9348,
9010,
883,
8104,
8490,
5638,
7486,
1934,
8386,
6514,
7589,
9476,
1959,
2546,
2270,
6759,
7995,
727,
6876,
5204,
5504,
4833,
9481,
331,
3216,
7292,
8310,
3551,
5241,
2303,
7733,
7127,
8049,
2243,
9566,
6053,
4259,
1963,
4066,
6006,
2682,
6565,
1942,
5859,
9693,
4241,
431,
5918,
7593,
5136,
8001,
744,
2940,
327,
4486,
1330,
5673,
5090,
8012,
5616,
5065,
2445,
2117,
2820,
5169,
6552,
2825,
1807,
7649,
2705,
8404,
2518,
4245,
340,
4544,
8026,
1606,
1400,
6483,
5019,
2854,
6836,
2585,
7260,
2984,
956,
3918,
4872,
543,
1079,
7191,
3672,
7302,
3545,
2384,
708,
8929,
156,
3381,
4025,
3188,
8915,
847,
2726,
2115,
1098,
6085,
6513,
1272,
1207,
6537,
8410,
4677,
8328,
9581,
7493,
2741,
6259,
1316,
3434,
3627,
106,
3118,
4497,
100,
528,
8911,
2805,
9469,
6530,
1536,
4213,
4945,
9031,
7830,
8813,
8466,
8826,
9713,
4670,
1883,
4318,
2426,
8387,
7195,
5642,
8160,
403,
8031,
2701,
854,
4537,
8725,
9554,
7743,
6398,
7806,
8499,
271,
3897,
3417,
9539,
3232,
6914,
2245,
2662,
9314,
6682,
8964,
5093,
8392,
1593,
7586,
9086,
4844,
3254,
8221,
5797,
2156,
2773,
1451,
5441,
4321,
9549,
7369,
2560,
9441,
3217,
9797,
5815,
9387,
1391,
8318,
9629,
9770,
1867,
2545,
3138,
3894,
8705,
3579,
725,
6355,
7894,
2584,
2408,
3677,
8822,
4128,
2500,
3879,
670,
5551,
4740,
2592,
4590,
1370,
3814,
1733,
6014,
1756,
9889,
4112,
1087,
8672,
8348,
8610,
1282,
7664,
3834,
6395,
5292,
4777,
9341,
4210,
8123,
6928,
3440,
9395,
3863,
2094,
7100,
496,
7909,
2210,
6432,
3445,
8760,
751,
7287,
3929,
5004,
6715,
4857,
3482,
6742,
1414,
8706,
8865,
177,
6407,
7032,
2648,
5101,
7888,
3384,
6378,
9727,
7667,
4401,
2145,
8677,
9555,
9097,
5071,
4461,
4984,
6206,
1774,
3943,
7295,
1811,
1493,
934,
5160,
1884,
2858,
4580,
813,
1133,
7314,
1407,
8256,
1908,
8109,
8033,
1491,
9619,
243,
3744,
8345,
9083,
3969,
181,
5662,
456,
8370,
1143,
343,
2154,
8361,
2868,
4250,
3287,
7358,
3764,
2081,
2881,
1983,
5553,
6262,
6136,
203,
9085,
392,
8025,
9861,
582,
1576,
8470,
3386,
6484,
693,
8091,
9650,
2875,
1018,
6359,
7914,
439,
5910,
593,
9837,
3063,
5087,
9330,
908,
6498,
9502,
1513,
7237,
8797,
9368,
820,
3544,
5412,
5565,
7654,
7847,
2930,
9703,
5878,
6237,
4165,
6716,
1375,
1974,
1845,
6566,
7151,
1601,
7565,
534,
6662,
6528,
9468,
9349,
6347,
4626,
3512,
8684,
3758,
3941,
4816,
3995,
2429,
772,
2746,
7610,
3925,
914,
4282,
5175,
5216,
6213,
3270,
5180,
2562,
6768,
8477,
2363,
8373,
7673,
7367,
5679,
3528,
6787,
3371,
8885,
4382,
1558,
474,
9718,
873,
8638,
8140,
4106,
5153,
5736,
9243,
310,
5781,
1821,
5468,
2753,
3702,
3836,
6118,
2666,
1896,
8626,
176,
484,
172,
2409,
3452,
4322,
4007,
8731,
4893,
3276,
8336,
3106,
1951,
2822,
4768,
7635,
4302,
5456,
227,
2441,
2787,
2144,
2855,
1895,
1188,
7132,
6651,
5240,
2089,
8044,
1003,
1779,
8581,
4042,
4502,
778,
1675,
3570,
9106,
525,
6703,
7039,
6075,
1057,
5177,
5555,
9428,
1481,
3603,
6500,
1025,
5407,
978,
5388,
9390,
1341,
9819,
9892,
1384,
1898,
5484,
72,
8990,
5269,
4072,
4228,
6949,
9625,
6756,
5260,
5735,
692,
5256,
8934,
8349,
5361,
2667,
9066,
8235,
1368,
9227,
3140,
8936,
8284,
9233,
8194,
7243,
7490,
4829,
13,
6600,
2689,
7756,
2522,
3792,
1524,
5740,
899,
2177,
1026,
3637,
2942,
775,
4061,
7160,
202,
6858,
652,
2187,
8641,
5665,
8429,
3594,
5178,
9799,
5330,
5224,
689,
2587,
8162,
1066,
586,
8190,
3075,
9733,
8462,
304,
588,
9577,
8301,
4613,
5365,
2549,
7217,
9609,
6313,
4465,
7919,
1917,
2333,
2158,
2161,
5024,
5960,
4733,
1669,
2419,
6852,
1163,
6765,
5447,
6934,
99,
7333,
3499,
8841,
7120,
4575,
3295,
5861,
3195,
6790,
5138,
5040,
3978,
478,
8468,
1125,
9562,
2119,
4067,
798,
9766,
7433,
7421,
8805,
2890,
7268,
8208,
6390,
8285,
3456,
7997,
8268,
3406,
4403,
9635,
6043,
4910,
3353,
2801,
2923,
8484,
9739,
7507,
8051,
6133,
8275,
6972,
1404,
8827,
8875,
3964,
2710,
5978,
4244,
2066,
5251,
7716,
3154,
7144,
9630,
8296,
6272,
2857,
187,
5674,
1072,
6654,
5895,
7867,
8720,
9078,
5834,
3105,
1920,
7816,
4676,
750,
7768,
7542,
719,
4887,
8590,
1469,
5871,
1329,
8951,
9803,
212,
9580,
7844,
3806,
4416,
3666,
1496,
7291,
5079,
241,
321,
3928,
2759,
545,
3394,
8584,
4727,
4044,
1495,
9058,
740,
6485,
284,
1689,
9666,
4951,
4400,
1812,
7489,
4856,
7114,
3018,
5899,
1479,
3737,
7650,
5886,
6088,
7833,
8892,
9051,
1818,
1986,
1640,
1869,
6596,
6049,
3709,
6863,
2686,
7259,
1489,
3575,
2699,
34,
5324,
9198,
3857,
2683,
9236,
1771,
8585,
6080,
5956,
3514,
83,
2423,
488,
5863,
5669,
1210,
7986,
816,
5659,
8158,
851,
2464,
6278,
9726,
9436,
1824,
5455,
6641,
7721,
8501,
5179,
7255,
8085,
1572,
2354,
9522,
6885,
1677,
7466,
2024,
2239,
1379,
3320,
2281,
3037,
3972,
6305,
8353,
5322,
3309,
9633,
9479,
9534,
990,
4446,
6384,
4567,
8398,
4101,
7832,
6415,
1126,
8492,
2222,
2655,
1632,
5006,
3332,
4211,
2991,
2195,
6818,
1073,
5777,
6966,
1618,
3753,
8313,
9474,
5528,
9448,
6385,
9262,
1490,
9683,
2925,
5270,
5957,
9851,
7496,
7001,
1984,
4975,
3760,
2888,
3235,
4524,
2767,
4510,
9655,
4115,
5904,
8178,
1291,
2391,
2353,
3686,
8539,
8421,
452,
5316,
9193,
322,
8422,
9546,
7315,
8196,
5598,
698,
2850,
4889,
4091,
3156,
6959,
8773,
810,
6251,
6509,
5765,
3436,
855,
5001,
5742,
7209,
4251,
8061,
2071,
6992,
3636,
3944,
5877,
5319,
703,
2146,
548,
8000,
8548,
6987,
5942,
8611,
1283,
2296,
2838,
4785,
4969,
5839,
7636,
9401,
7583,
2472,
8397,
4495,
2099,
9188,
2631,
6247,
5368,
6769,
1172,
2769,
7013,
8985,
4982,
2768,
4518,
5557,
204,
8619,
2568,
3029,
607,
8678,
2120,
2815,
8729,
5539,
7753,
4151,
6684,
5364,
2113,
7205,
6174,
1117,
8803,
2737,
2131,
8819,
9375,
8682,
8181,
8877,
6458,
4559,
8098,
1169,
7648,
9364,
3704,
2344,
579,
8341,
8573,
1033,
8567,
3661,
1055,
4,
8986,
9091,
1053,
6361,
4690,
8575,
2744,
2569,
9694,
4449,
634,
7402,
4996,
533,
6209,
3867,
4255,
6280,
294,
1164,
6601,
1608,
5378,
7282,
2606,
3716,
2677,
867,
5754,
973,
33,
1529,
596,
5559,
3974,
5533,
5909,
5053,
2506,
1135,
5922,
3428,
7671,
4325,
8355,
6406,
8083,
4761,
7900,
611,
8450,
5162,
8526,
1086,
7370,
8509,
7969,
5440,
4959,
1590,
7531,
4614,
7084,
8199,
6860,
4351,
6789,
8185,
1306,
2011,
1551,
1634,
5550,
8556,
5588,
2889,
6301,
9773,
3331,
5085,
2601,
86,
195,
1463,
1148,
3674,
1862,
8222,
2534,
3082,
3472,
1136,
5259,
6539,
136,
7029,
9202,
6888,
2190,
8857,
9787,
8988,
4484,
5213,
234,
1423,
3179,
3748,
907,
1805,
5005,
7236,
1229,
4297,
7804,
2708,
2856,
3365,
7711,
6844,
578,
6491,
3416,
2793,
9343,
8435,
6977,
4134,
9160,
5581,
2499,
3950,
8394,
7994,
7497,
8432,
9011,
4527,
989,
2476,
119,
494,
8853,
5614,
7819,
6916,
8014,
8415,
6536,
5349,
3910,
3185,
1439,
6889,
2050,
786,
231,
1712,
9377,
3004,
6711,
6808,
